{
  "editor.fontFamily": "FiraCode Nerd Font Mono, Monoid Nerd Font Mono Regular",
  "editor.fontLigatures": true,
  "editor.fontSize": 15,
  "editor.scrollBeyondLastLine": false,
  "editor.lineNumbers": "relative",
  "keyboard.dispatch": "keyCode",
  "terminal.integrated.profiles.linux": {
    "bash": {
      "path": "bash",
      "icon": "terminal-bash"
    },
    "zsh": {
      "path": "zsh"
    },
    "fish": {
      "path": "fish"
    },
    "tmux": {
      "path": "tmux",
      "icon": "terminal-tmux"
    }
  },
  "terminal.integrated.defaultProfile.linux": "zsh",
  "workbench.preferredDarkColorTheme": "Dracula",
  "terminal.integrated.enablePersistentSessions": false,
  "git.terminalAuthentication": false,
  "colorize.include": [
    "**/*.css",
    "**/*.scss",
    "**/*.sass",
    "**/*.less",
    "**/*.styl",
    "**/*.rasi"
  ],
  "todo-tree.general.tags": [
    "BUG",
    "HACK",
    "FIXME",
    "TODO",
    "[ ]",
    "[x]",
    "ASKME"
  ],
  "[css]": {
    "editor.defaultFormatter": "vscode.css-language-features"
  },
  "editor.formatOnSave": true,
  "[javascript]": {
    "editor.defaultFormatter": "dbaeumer.vscode-eslint"
  },
  "[typescript]": {
    "editor.defaultFormatter": "dbaeumer.vscode-eslint"
  },
  "[vue]": {
    "editor.codeActionsOnSave": {
      "source.fixAll.eslint": true
    },
    "editor.defaultFormatter": "dbaeumer.vscode-eslint",
  },
  "vscode-neovim.mouseSelectionStartVisualMode": true,
  "vscode-neovim.highlightGroups.highlights": {
    "Directory": "vim",
    "IncSearch": {
      "backgroundColor": "theme.editor.findMatchBackground",
      "borderColor": "theme.editor.findMatchBorder"
    },
    "Search": {
      "backgroundColor": "theme.editor.findMatchHighlightBackground",
      "borderColor": "theme.editor.findMatchHighlightBorder"
    },
    "Visual": {
      "backgroundColor": "theme.editor.selectionBackground"
    },
    "Conceal": "vim",
    "Substitute": "vim"
  },
  "files.autoSave": "onWindowChange",
  "workbench.colorTheme": "Dracula Soft"
}